<svg height="24" width="24" viewBox="0 0 24 24">
   <path d="M12,3L2,12H5V20H19V12H22L12,3M12,7.7C14.1,7.7 15.8,9.4 15.8,11.5C15.8,14.5 12,18 12,18C12,18 8.2,14.5 8.2,11.5C8.2,9.4 9.9,7.7 12,7.7M12,10A1.5,1.5 0 0,0 10.5,11.5A1.5,1.5 0 0,0 12,13A1.5,1.5 0 0,0 13.5,11.5A1.5,1.5 0 0,0 12,10Z"/>
</svg>
