<svg height="24" width="24" viewBox="0 0 24 24">
   <path d="M9,22A1,1 0 0,1 8,21V18H4A2,2 0 0,1 2,16V4C2,2.89 2.9,2 4,2H20A2,2 0 0,1 22,4V16A2,2 0 0,1 20,18H13.9L10.2,21.71C10,21.9 9.75,22 9.5,22V22H9M13,10V6H11V10H13M13,14V12H11V14H13Z"/>
</svg>
