<?xml version="1.0" encoding="UTF-8" standalone="no"?>
<svg
   xmlns:dc="http://purl.org/dc/elements/1.1/"
   xmlns:cc="http://creativecommons.org/ns#"
   xmlns:rdf="http://www.w3.org/1999/02/22-rdf-syntax-ns#"
   xmlns:svg="http://www.w3.org/2000/svg"
   xmlns="http://www.w3.org/2000/svg"
   xmlns:sodipodi="http://sodipodi.sourceforge.net/DTD/sodipodi-0.dtd"
   xmlns:inkscape="http://www.inkscape.org/namespaces/inkscape"
   version="1.1"
   x="0px"
   y="0px"
   viewBox="0 0 100 100"
   enable-background="new 0 0 33.334 100"
   xml:space="preserve"
   id="svg20"
   sodipodi:docname="lmm-fm.svg"
   width="100"
   height="100"
   inkscape:version="0.92.3 (2405546, 2018-03-11)"><metadata
     id="metadata26"><rdf:RDF><cc:Work
         rdf:about=""><dc:format>image/svg+xml</dc:format><dc:type
           rdf:resource="http://purl.org/dc/dcmitype/StillImage" /><dc:title></dc:title></cc:Work></rdf:RDF></metadata><defs
     id="defs24" /><sodipodi:namedview
     pagecolor="#ffffff"
     bordercolor="#666666"
     borderopacity="1"
     objecttolerance="10"
     gridtolerance="10"
     guidetolerance="10"
     inkscape:pageopacity="0"
     inkscape:pageshadow="2"
     inkscape:window-width="1061"
     inkscape:window-height="596"
     id="namedview22"
     showgrid="false"
     inkscape:zoom="2.36"
     inkscape:cx="45.302758"
     inkscape:cy="50"
     inkscape:window-x="119"
     inkscape:window-y="273"
     inkscape:window-maximized="0"
     inkscape:current-layer="svg20" /><path
     d="m 52.778,41.667 11.11,-11.111 c 2.778,-2.778 2.778,-2.778 2.778,-13.889 l -11.111,11.11 c -2.777,2.779 -2.777,2.779 -2.777,13.89 z"
     id="path2"
     inkscape:connector-curvature="0"
     style="fill:#ffffff" /><path
     d="M 66.667,0 55.556,11.111 C 52.779,13.888 52.779,13.888 52.779,25 L 63.889,13.889 C 66.667,11.111 66.667,11.111 66.667,0 Z"
     id="path4"
     inkscape:connector-curvature="0"
     style="fill:#ffffff" /><path
     d="m 47.223,41.667 c 0,-11.111 0,-11.111 -2.778,-13.89 L 33.333,16.667 c 0,11.11 0,11.11 2.778,13.889 z"
     id="path6"
     inkscape:connector-curvature="0"
     style="fill:#ffffff" /><path
     d="m 52.778,58.333 11.11,-11.11 c 2.778,-2.778 2.778,-2.778 2.778,-13.89 l -11.11,11.111 c -2.778,2.779 -2.778,2.779 -2.778,13.889 z"
     id="path8"
     inkscape:connector-curvature="0"
     style="fill:#ffffff" /><path
     d="m 47.223,58.333 c 0,-11.11 0,-11.11 -2.778,-13.889 L 33.333,33.333 c 0,11.111 0,11.111 2.778,13.89 z"
     id="path10"
     inkscape:connector-curvature="0"
     style="fill:#ffffff" /><path
     d="M 52.778,75 63.888,63.889 C 66.666,61.112 66.666,61.112 66.666,50 L 55.556,61.111 C 52.778,63.889 52.778,63.889 52.778,75 Z"
     id="path12"
     inkscape:connector-curvature="0"
     style="fill:#ffffff" /><path
     d="m 47.223,75 c 0,-11.111 0,-11.111 -2.778,-13.889 L 33.333,50 c 0,11.111 0,11.111 2.778,13.889 z"
     id="path14"
     inkscape:connector-curvature="0"
     style="fill:#ffffff" /><path
     d="m 47.223,25 c 0,-11.111 0,-11.111 -2.778,-13.889 L 33.333,0 c 0,11.111 0,11.111 2.778,13.889 z"
     id="path16"
     inkscape:connector-curvature="0"
     style="fill:#ffffff" /><path
     d="M 50,83.333 33.333,66.667 c 0,11.11 0,11.11 2.778,13.889 L 47.223,91.667 V 100 h 5.556 v -8.333 l 11.11,-11.111 c 2.778,-2.778 2.778,-2.778 2.778,-13.889 z"
     id="path18"
     inkscape:connector-curvature="0"
     style="fill:#ffffff" /></svg>