<?xml version="1.0" encoding="UTF-8" standalone="no"?>
<!-- Created with Inkscape (http://www.inkscape.org/) -->

<svg
   xmlns:dc="http://purl.org/dc/elements/1.1/"
   xmlns:cc="http://creativecommons.org/ns#"
   xmlns:rdf="http://www.w3.org/1999/02/22-rdf-syntax-ns#"
   xmlns:svg="http://www.w3.org/2000/svg"
   xmlns="http://www.w3.org/2000/svg"
   xmlns:sodipodi="http://sodipodi.sourceforge.net/DTD/sodipodi-0.dtd"
   xmlns:inkscape="http://www.inkscape.org/namespaces/inkscape"
   id="svg3264"
   sodipodi:docname="lmm-gw.svg"
   viewBox="0 0 300 300.00001"
   version="1.1"
   inkscape:version="0.92.3 (2405546, 2018-03-11)"
   inkscape:export-filename="C:\Users\stephan\Desktop\open-book-grey.png"
   inkscape:export-xdpi="96"
   inkscape:export-ydpi="96"
   width="300"
   height="300">
  <defs
     id="defs13" />
  <sodipodi:namedview
     id="base"
     bordercolor="#666666"
     inkscape:pageshadow="2"
     inkscape:window-y="226"
     fit-margin-left="0"
     pagecolor="#ffffff"
     fit-margin-top="0"
     inkscape:window-maximized="0"
     inkscape:zoom="1.0748023"
     inkscape:window-x="141"
     inkscape:window-height="731"
     showgrid="false"
     borderopacity="1.0"
     inkscape:current-layer="layer1"
     inkscape:cx="111.86055"
     inkscape:cy="95.092988"
     fit-margin-right="0"
     fit-margin-bottom="0"
     inkscape:window-width="1360"
     inkscape:pageopacity="0.0"
     inkscape:document-units="px" />
  <g
     id="layer1"
     inkscape:label="Layer 1"
     inkscape:groupmode="layer"
     transform="translate(-257.74,-194.21999)">
    <path
       id="path4091-5"
       sodipodi:nodetypes="cccczccc"
       style="fill:none;stroke:#ffffff;stroke-width:10;stroke-miterlimit:4;stroke-dasharray:none"
       inkscape:connector-curvature="0"
       d="m 277.46414,253.72395 h 261.0585 V 431.72384 H 427.90812 c 0,0 -8.6213,9.83165 -19.08802,10.12229 -10.46683,0.29066 -21.20193,-9.82404 -21.20193,-9.82404 l -110.64702,-1.13376 z" />
    <g
       id="g4136"
       style="fill:#ffffff;stroke:none"
       transform="translate(13.44402,-46.126326)">
      <path
         d="m 276.99,301.8867 c 42.52,0 85.039,-31.89 116.93,0 31.89,-31.89 74.409,0 116.93,0 v 159.45 c -42.52,0 -85.039,-31.89 -116.93,0 -31.89,-31.89 -74.409,0 -116.93,0 z"
         inkscape:connector-curvature="0"
         style="fill:#ffffff;stroke:none;stroke-width:5;stroke-miterlimit:4;stroke-dasharray:none"
         sodipodi:nodetypes="ccccccc"
         id="path4093-0" />
      <path
         d="m 393.92,301.8867 v 157.64"
         inkscape:connector-curvature="0"
         style="fill:#ffffff;stroke:none;stroke-width:5;stroke-miterlimit:4;stroke-dasharray:none"
         id="path4095-1" />
    </g>
  </g>
  <metadata
     id="metadata11">
    <rdf:RDF>
      <cc:Work>
        <dc:format>image/svg+xml</dc:format>
        <dc:type
           rdf:resource="http://purl.org/dc/dcmitype/StillImage" />
        <cc:license
           rdf:resource="http://creativecommons.org/publicdomain/zero/1.0/" />
        <dc:publisher>
          <cc:Agent
             rdf:about="http://openclipart.org/">
            <dc:title>Openclipart</dc:title>
          </cc:Agent>
        </dc:publisher>
        <dc:title></dc:title>
        <dc:date>2011-09-07T16:46:35</dc:date>
        <dc:description>Open book icon (grayscale)</dc:description>
        <dc:source>https://openclipart.org/detail/159463/open-book-grayscale-by-sibskull</dc:source>
        <dc:creator>
          <cc:Agent>
            <dc:title>sibskull</dc:title>
          </cc:Agent>
        </dc:creator>
        <dc:subject>
          <rdf:Bag>
            <rdf:li>book</rdf:li>
            <rdf:li>documentation</rdf:li>
            <rdf:li>grayscale</rdf:li>
            <rdf:li>icon</rdf:li>
          </rdf:Bag>
        </dc:subject>
      </cc:Work>
      <cc:License
         rdf:about="http://creativecommons.org/publicdomain/zero/1.0/">
        <cc:permits
           rdf:resource="http://creativecommons.org/ns#Reproduction" />
        <cc:permits
           rdf:resource="http://creativecommons.org/ns#Distribution" />
        <cc:permits
           rdf:resource="http://creativecommons.org/ns#DerivativeWorks" />
      </cc:License>
    </rdf:RDF>
  </metadata>
</svg>
