#okNextError No query
INSERT INTO languages (id,language, code) SELECT (SELECT MAX(id)+1 FROM languages), 'Haitian Creole', 'ht' WHERE NOT EXISTS (SELECT 1 FROM languages WHERE code = 'ht')
INSERT INTO languages (id,language, code) SELECT (SELECT MAX(id)+1 FROM languages), 'Bulgarian', 'bg' WHERE NOT EXISTS (SELECT 1 FROM languages WHERE code = 'bg')
INSERT INTO settings (name, value, time_stamp, active) VALUES ("slip4_u_ru_ckboxnames","~Check Box1.0.0;Check Box2.0.0;Check Box3.0.0;Check Box4.0.0;Check Box5.0.0;Check Box6.0.0;Check Box7.0.0;Check Box8.0.0;Check Box1.0.1;Check Box2.0.1;Check Box3.0.1;Check Box4.0.1;Check Box5.0.1;Check Box6.0.1;Check Box7.0.1;Check Box8.0.1;Check Box1.1.0;Check Box2.1.0;Check Box3.1.0;Check Box4.1.0;Check Box5.1.0;Check Box6.1.0;Check Box7.1.0;Check Box8.1.0;Check Box1.1.1;Check Box2.1.1;Check Box3.1.1;Check Box4.1.1;Check Box5.1.1;Check Box6.1.1;Check Box7.1.1;Check Box8.1.1",strftime('%s','now'),1);
INSERT INTO settings (name, value, time_stamp, active) VALUES ("slip4_u_ru_boxnames","~Text1.0.0;Text2.0.0;Text3.0.0;Text4.0.0;Text5.0.0;Text1.0.1;Text2.0.1;Text3.0.1;Text4.0.1;Text5.0.1;Text1.1.0;Text2.1.0;Text3.1.0;Text4.1.0;Text5.1.0;Text1.1.1;Text2.1.1;Text3.1.1;Text4.1.1;Text5.1.1",strftime('%s','now'),1);
